D	1	/home/rlaz/reorg/MathSeer-extraction-pipeline/modules/qdgga/A00-3007.pdf
P	1
FR	1	1828	1270	1913	1298
S	1	W	1828	1270	1866	1298
S	2	S	1866	1270	1884	1298
S	3	D	1886	1270	1913	1298
FR	2	314	1352	467	1386
o	1	x	339	1352	436	1380
MML	2	"<mi xml:id="0:">\n x\n</mi>"	0	0	0	0
FR	3	1659	2294	1744	2321
S	1	W	1659	2294	1696	2321
S	2	S	1697	2294	1715	2321
S	3	D	1716	2294	1744	2321
FR	4	310	2565	493	2601
o	1	m	349	2572	388	2592
o	2	f	391	2565	421	2600
o	3	Z	419	2574	461	2601
R	4	HORIZONTAL	1	2	0	0
R	5	HORIZONTAL	2	3	0	0
MML	6	"<mrow>\n <mi xml:id="0:">\n  m\n </mi>\n <mi xml:id="1:">\n  f\n </mi>\n <mi xml:id="2:">\n  Z\n </mi>\n</mrow>"	0	0	0	0
P	2
FR	1	673	308	1496	396
o	1	w	722	341	772	368
o	2	t	774	337	799	361
o	3	alpha	806	341	840	361
o	4	pi	869	341	903	361
o	5	minus	986	341	1007	344
o	6	minus	1022	345	1496	350
o	7	infty	1061	316	1095	336
o	8	i	1224	366	1253	389
o	9	ast	1255	312	1334	343
o	10	R	1401	316	1452	343
o	11	tilde	1453	311	1479	335
R	12	HORIZONTAL	1	2	0	0
R	13	HORIZONTAL	2	3	0	0
R	14	HORIZONTAL	3	4	0	0
R	15	HORIZONTAL	4	5	0	0
R	16	HORIZONTAL	5	6	0	0
R	17	UPPER	6	7	0	0
R	18	UNDER	6	8	0	0
R	19	HORIZONTAL	6	9	0	0
R	20	HORIZONTAL	9	10	0	0
R	21	HORIZONTAL	10	11	0	0
MML	22	"<mrow>\n <mi xml:id="0:">\n  w\n </mi>\n <mi xml:id="1:">\n  t\n </mi>\n <mi xml:id="2:">\n  α\n </mi>\n <mi xml:id="3:">\n  π\n </mi>\n <mo xml:id="4:">\n  -\n </mo>\n <mfrac xml:id="5:">\n  <mi xml:id="6:">\n   ∞\n  </mi>\n  <mi xml:id="7:">\n   i\n  </mi>\n </mfrac>\n <mi xml:id="8:">\n  &amp;ast\n </mi>\n <mi xml:id="9:">\n  R\n </mi>\n <mi xml:id="10:">\n  ˜\n </mi>\n</mrow>"	0	0	0	0
FR	2	1598	593	1645	619
S	1	I	1598	593	1609	619
S	2	0	1613	593	1630	619
S	3	0	1632	593	1645	619
FR	3	1766	862	1970	898
o	1	alpha	1800	872	1834	891
o	2	one	1834	867	1862	892
o	3	leqq	1863	872	1897	891
R	4	HORIZONTAL	1	2	0	0
R	5	HORIZONTAL	2	3	0	0
MML	6	"<mrow>\n <mi xml:id="0:">\n  α\n </mi>\n <mn xml:id="1:">\n  1\n </mn>\n <mi xml:id="2:">\n  &amp;leqq\n </mi>\n</mrow>"	0	0	0	0
FR	4	1424	908	1967	943
o	1	f	1424	908	1440	937
o	2	x	1435	917	1470	936
o	3	s	1469	917	1503	937
o	4	approx	1819	917	1848	936
o	5	H	1859	917	1914	937
o	6	i	1862	908	1868	914
o	7	i	1925	916	1954	936
o	8	hat	1927	908	1932	913
R	9	HORIZONTAL	1	2	0	0
R	10	HORIZONTAL	2	3	0	0
R	11	HORIZONTAL	3	4	0	0
R	12	HORIZONTAL	4	5	0	0
R	13	RSUB	5	6	0	0
R	14	HORIZONTAL	5	8	0	0
R	15	HORIZONTAL	8	7	0	0
MML	16	"<mrow>\n <mi xml:id="0:">\n  f\n </mi>\n <mi xml:id="1:">\n  x\n </mi>\n <mi xml:id="2:">\n  s\n </mi>\n <mi xml:id="3:">\n  &amp;approx\n </mi>\n <msub>\n  <mi xml:id="4:">\n   H\n  </mi>\n  <mi xml:id="5:">\n   i\n  </mi>\n </msub>\n <mi xml:id="7:">\n  hat\n </mi>\n <mi xml:id="6:">\n  i\n </mi>\n</mrow>"	0	0	0	0
FR	5	1230	953	1677	989
o	1	LeftPar	1252	954	1264	988
o	2	w	1264	962	1318	981
o	3	x	1327	957	1372	982
o	4	p	1444	962	1495	988
o	5	tilde	1496	957	1522	981
o	6	LeftPar	1556	954	1568	988
o	7	S	1569	962	1633	988
o	8	four	1634	957	1659	981
R	9	HORIZONTAL	1	2	0	0
R	10	HORIZONTAL	2	3	0	0
R	11	HORIZONTAL	3	4	0	0
R	12	HORIZONTAL	4	5	0	0
R	13	HORIZONTAL	5	6	0	0
R	14	HORIZONTAL	6	7	0	0
R	15	HORIZONTAL	7	8	0	0
MML	16	"<mrow>\n <mi xml:id="0:">\n  (\n </mi>\n <mi xml:id="1:">\n  w\n </mi>\n <mi xml:id="2:">\n  x\n </mi>\n <mi xml:id="3:">\n  p\n </mi>\n <mi xml:id="4:">\n  ˜\n </mi>\n <mi xml:id="5:">\n  (\n </mi>\n <mi xml:id="6:">\n  S\n </mi>\n <mn xml:id="7:">\n  4\n </mn>\n</mrow>"	0	0	0	0
FR	6	1425	998	1611	1033
o	1	b	1432	999	1437	1011
o	2	alpha	1438	1007	1472	1026
o	3	M	1472	1002	1501	1026
o	4	epsilon	1502	1002	1546	1027
o	5	C	1546	998	1559	1033
o	6	prime	1606	999	1611	1011
R	7	HORIZONTAL	1	2	0	0
R	8	HORIZONTAL	2	3	0	0
R	9	HORIZONTAL	3	4	0	0
R	10	HORIZONTAL	4	5	0	0
R	11	RSUP	5	6	0	0
MML	12	"<mrow>\n <mi xml:id="0:">\n  b\n </mi>\n <mi xml:id="1:">\n  α\n </mi>\n <mi xml:id="2:">\n  M\n </mi>\n <mi xml:id="3:">\n  ε\n </mi>\n <msup>\n  <mi xml:id="4:">\n   C\n  </mi>\n  <mo xml:id="5:">\n   ′\n  </mo>\n </msup>\n</mrow>"	0	0	0	0
FR	7	795	1000	881	1028
S	1	W	795	1000	831	1027
S	2	S	830	1000	849	1028
S	3	D	851	1000	877	1027
S	4	.	880	1024	881	1026
FR	8	795	1000	881	1028
S	1	W	795	1000	831	1027
S	2	S	830	1000	849	1028
S	3	D	851	1000	877	1027
S	4	.	880	1024	881	1026
FR	9	1233	1178	1418	1213
o	1	one	1238	1178	1244	1190
o	2	alpha	1245	1182	1308	1207
o	3	z	1309	1187	1343	1206
o	4	t	1342	1182	1354	1206
o	5	prime	1412	1178	1418	1190
R	6	HORIZONTAL	1	2	0	0
R	7	HORIZONTAL	2	3	0	0
R	8	HORIZONTAL	3	4	0	0
R	9	RSUP	4	5	0	0
MML	10	"<mrow>\n <mn xml:id="0:">\n  1\n </mn>\n <mi xml:id="1:">\n  α\n </mi>\n <mi xml:id="2:">\n  z\n </mi>\n <msup>\n  <mi xml:id="3:">\n   t\n  </mi>\n  <mo xml:id="4:">\n   ′\n  </mo>\n </msup>\n</mrow>"	0	0	0	0
FR	10	818	1449	967	1483
o	1	vert	853	1449	883	1475
o	2	i	856	1449	861	1454
o	3	epsilon	883	1457	931	1475
o	4	Y	931	1449	967	1483
R	5	HORIZONTAL	2	1	0	0
R	6	HORIZONTAL	3	4	0	0
R	7	HORIZONTAL	4	2	0	0
MML	8	"<mrow>\n <mi xml:id="2:">\n  ε\n </mi>\n <mi xml:id="3:">\n  Y\n </mi>\n <mi xml:id="1:">\n  i\n </mi>\n <mi xml:id="0:">\n  \\vert\n </mi>\n</mrow>"	0	0	0	0
FR	11	1239	1489	1861	1575
o	1	P	1239	1499	1260	1528
o	2	LeftPar	1261	1498	1274	1536
o	3	m	1289	1507	1331	1537
o	4	s	1332	1508	1347	1529
o	5	epsilon	1348	1508	1365	1528
o	6	RightPar	1376	1498	1389	1536
o	7	times	1395	1504	1418	1528
o	8	LeftPar	1424	1498	1437	1536
o	9	one	1441	1498	1454	1528
o	10	minus	1462	1515	1474	1521
o	11	ldots	1498	1566	1503	1575
o	12	prod	1511	1489	1561	1544
o	13	infty	1563	1556	1584	1568
o	14	LeftPar	1568	1497	1580	1535
o	15	minus	1605	1515	1617	1520
o	16	P	1626	1499	1647	1528
o	17	LeftPar	1650	1498	1663	1535
o	18	Y	1663	1507	1692	1528
o	19	i	1697	1526	1704	1539
o	20	i	1698	1520	1703	1524
o	21	vert	1720	1498	1723	1537
o	22	S	1734	1507	1749	1528
o	23	p	1749	1507	1805	1536
o	24	epsilon	1806	1507	1823	1528
o	25	four	1823	1502	1835	1528
o	26	RightPar	1834	1497	1847	1535
o	27	RightPar	1848	1498	1861	1536
R	28	HORIZONTAL	1	2	0	0
R	29	HORIZONTAL	2	3	0	0
R	30	HORIZONTAL	3	4	0	0
R	31	HORIZONTAL	4	5	0	0
R	32	HORIZONTAL	5	6	0	0
R	33	HORIZONTAL	6	7	0	0
R	34	HORIZONTAL	7	8	0	0
R	35	HORIZONTAL	8	9	0	0
R	36	HORIZONTAL	9	10	0	0
R	37	HORIZONTAL	10	12	0	0
R	38	UNDER	12	11	0	0
R	39	RSUB	12	13	0	0
R	40	HORIZONTAL	12	14	0	0
R	41	HORIZONTAL	14	15	0	0
R	42	HORIZONTAL	15	16	0	0
R	43	HORIZONTAL	16	17	0	0
R	44	HORIZONTAL	17	18	0	0
R	45	RSUB	18	19	0	0
R	46	HORIZONTAL	18	21	0	0
R	47	UPPER	19	20	0	0
R	48	HORIZONTAL	21	22	0	0
R	49	HORIZONTAL	22	23	0	0
R	50	HORIZONTAL	23	24	0	0
R	51	HORIZONTAL	24	25	0	0
R	52	HORIZONTAL	25	26	0	0
R	53	HORIZONTAL	26	27	0	0
MML	54	"<mrow>\n <mi xml:id="0:">\n  P\n </mi>\n <mi xml:id="1:">\n  (\n </mi>\n <mi xml:id="2:">\n  m\n </mi>\n <mi xml:id="3:">\n  s\n </mi>\n <mi xml:id="4:">\n  ε\n </mi>\n <mi xml:id="5:">\n  )\n </mi>\n <mo xml:id="6:">\n  ×\n </mo>\n <mi xml:id="7:">\n  (\n </mi>\n <mn xml:id="8:">\n  1\n </mn>\n <mo xml:id="9:">\n  -\n </mo>\n <msub>\n  <munder>\n   <mi xml:id="11:">\n    ∏\n   </mi>\n   <mo xml:id="10:">\n    …\n   </mo>\n  </munder>\n  <mi xml:id="12:">\n   ∞\n  </mi>\n </msub>\n <mi xml:id="13:">\n  (\n </mi>\n <mo xml:id="14:">\n  -\n </mo>\n <mi xml:id="15:">\n  P\n </mi>\n <mi xml:id="16:">\n  (\n </mi>\n <msub>\n  <mi xml:id="17:">\n   Y\n  </mi>\n  <munder>\n   <mi xml:id="19:">\n    i\n   </mi>\n   <mi xml:id="18:">\n    i\n   </mi>\n  </munder>\n </msub>\n <mi xml:id="20:">\n  \\vert\n </mi>\n <mi xml:id="21:">\n  S\n </mi>\n <mi xml:id="22:">\n  p\n </mi>\n <mi xml:id="23:">\n  ε\n </mi>\n <mn xml:id="24:">\n  4\n </mn>\n <mi xml:id="25:">\n  )\n </mi>\n <mi xml:id="26:">\n  )\n </mi>\n</mrow>"	0	0	0	0
FR	12	1762	1680	1897	1715
o	1	m	1810	1689	1861	1715
o	2	t	1862	1684	1887	1709
R	3	HORIZONTAL	1	2	0	0
MML	4	"<mrow>\n <mi xml:id="0:">\n  m\n </mi>\n <mi xml:id="1:">\n  t\n </mi>\n</mrow>"	0	0	0	0
FR	13	1232	1726	1415	1761
o	1	C	1254	1726	1266	1761
o	2	one	1292	1747	1298	1759
o	3	S	1307	1734	1320	1754
o	4	m	1320	1734	1371	1761
o	5	e	1372	1730	1397	1754
R	6	HORIZONTAL	1	2	0	0
R	7	HORIZONTAL	2	3	0	0
R	8	HORIZONTAL	3	4	0	0
R	9	HORIZONTAL	4	5	0	0
MML	10	"<mrow>\n <mi xml:id="0:">\n  C\n </mi>\n <mn xml:id="1:">\n  1\n </mn>\n <mi xml:id="2:">\n  S\n </mi>\n <mi xml:id="3:">\n  m\n </mi>\n <mi xml:id="4:">\n  e\n </mi>\n</mrow>"	0	0	0	0
FR	14	1712	1770	1909	1805
o	1	partial	1733	1790	1744	1803
o	2	LeftPar	1745	1771	1756	1805
o	3	one	1783	1790	1788	1802
o	4	i	1785	1784	1788	1789
o	5	m	1810	1778	1861	1805
o	6	epsilon	1861	1774	1887	1798
R	7	HORIZONTAL	1	2	0	0
R	8	HORIZONTAL	2	5	0	0
R	9	HORIZONTAL	4	3	0	0
R	10	RSUB	5	4	0	0
R	11	HORIZONTAL	5	6	0	0
MML	12	"<mrow>\n <mo xml:id="0:">\n  ∂\n </mo>\n <mi xml:id="1:">\n  (\n </mi>\n <msub>\n  <mi xml:id="4:">\n   m\n  </mi>\n  <mrow>\n   <mi xml:id="3:">\n    i\n   </mi>\n   <mn xml:id="2:">\n    1\n   </mn>\n  </mrow>\n </msub>\n <mi xml:id="5:">\n  ε\n </mi>\n</mrow>"	0	0	0	0
FR	15	607	2610	845	2643
o	1	S	655	2617	703	2637
o	2	m	726	2614	788	2636
o	3	M	789	2613	834	2636
R	4	HORIZONTAL	1	2	0	0
R	5	HORIZONTAL	2	3	0	0
MML	6	"<mrow>\n <mi xml:id="0:">\n  S\n </mi>\n <mi xml:id="1:">\n  m\n </mi>\n <mi xml:id="2:">\n  M\n </mi>\n</mrow>"	0	0	0	0
FR	16	607	2610	843	2643
o	1	S	655	2617	703	2637
o	2	m	726	2614	788	2636
o	3	M	789	2613	834	2636
R	4	HORIZONTAL	1	2	0	0
R	5	HORIZONTAL	2	3	0	0
MML	6	"<mrow>\n <mi xml:id="0:">\n  S\n </mi>\n <mi xml:id="1:">\n  m\n </mi>\n <mi xml:id="2:">\n  M\n </mi>\n</mrow>"	0	0	0	0
P	3
FR	1	301	592	444	628
o	1	i	338	592	357	620
o	2	i	340	592	345	597
o	3	alpha	358	600	407	620
o	4	V	408	592	444	628
R	5	HORIZONTAL	1	2	0	0
R	6	RSUB	1	3	0	0
R	7	HORIZONTAL	3	4	0	0
MML	8	"<mrow>\n <msub>\n  <mi xml:id="0:">\n   i\n  </mi>\n  <mrow>\n   <mi xml:id="2:">\n    α\n   </mi>\n   <mi xml:id="3:">\n    V\n   </mi>\n  </mrow>\n </msub>\n <mi xml:id="1:">\n  i\n </mi>\n</mrow>"	0	0	0	0
FR	2	1264	867	1681	985
o	1	LeftPar	1299	906	1310	942
o	2	v	1311	915	1339	935
o	3	vert	1340	921	1343	925
o	4	vert	1347	906	1350	943
o	5	s	1352	915	1371	935
o	6	RightPar	1371	906	1384	942
o	7	equal	1394	915	1417	920
o	8	equal	1394	922	1416	927
o	9	minus	1432	921	1681	927
o	10	sum	1436	928	1481	985
o	11	comma	1483	972	1511	985
o	12	varphi	1514	967	1535	985
o	13	M	1541	940	1583	969
o	14	i	1565	906	1571	918
o	15	one	1568	901	1571	904
o	16	prod	1580	867	1602	916
o	17	vert	1587	927	1599	977
o	18	w	1597	949	1625	969
o	19	vert	1626	927	1647	977
o	20	x	1645	949	1666	970
o	21	BigRightPar	1669	928	1681	977
R	22	HORIZONTAL	1	2	0	0
R	23	HORIZONTAL	2	4	0	0
R	24	RSUP	4	3	0	0
R	25	HORIZONTAL	4	5	0	0
R	26	HORIZONTAL	5	6	0	0
R	27	HORIZONTAL	6	7	0	0
R	28	HORIZONTAL	7	8	0	0
R	29	HORIZONTAL	8	9	0	0
R	30	UNDER	9	10	0	0
R	31	UPPER	9	14	0	0
R	32	RSUB	10	11	0	0
R	33	HORIZONTAL	10	13	0	0
R	34	HORIZONTAL	11	12	0	0
R	35	HORIZONTAL	13	17	0	0
R	36	HORIZONTAL	14	15	0	0
R	37	HORIZONTAL	15	16	0	0
R	38	HORIZONTAL	17	18	0	0
R	39	HORIZONTAL	18	19	0	0
R	40	HORIZONTAL	19	20	0	0
R	41	HORIZONTAL	20	21	0	0
MML	42	"<mrow>\n <mi xml:id="0:">\n  (\n </mi>\n <mi xml:id="1:">\n  v\n </mi>\n <msup>\n  <mi xml:id="3:">\n   \\vert\n  </mi>\n  <mi xml:id="2:">\n   \\vert\n  </mi>\n </msup>\n <mi xml:id="4:">\n  s\n </mi>\n <mi xml:id="5:">\n  )\n </mi>\n <mo xml:id="6:">\n  =\n </mo>\n <mo xml:id="7:">\n  =\n </mo>\n <mfrac xml:id="8:">\n  <mrow>\n   <mi xml:id="13:">\n    i\n   </mi>\n   <mn xml:id="14:">\n    1\n   </mn>\n   <mi xml:id="15:">\n    ∏\n   </mi>\n  </mrow>\n  <mrow>\n   <msub>\n    <mo xml:id="9:">\n     ∑\n    </mo>\n    <mrow>\n     <mo xml:id="10:">\n      ,\n     </mo>\n     <mi xml:id="11:">\n      φ\n     </mi>\n    </mrow>\n   </msub>\n   <mi xml:id="12:">\n    M\n   </mi>\n   <mi xml:id="16:">\n    \\vert\n   </mi>\n   <mi xml:id="17:">\n    w\n   </mi>\n   <mi xml:id="18:">\n    \\vert\n   </mi>\n   <mi xml:id="19:">\n    x\n   </mi>\n   <mi xml:id="20:">\n    ]\n   </mi>\n  </mrow>\n </mfrac>\n</mrow>"	0	0	0	0
FR	3	1372	1013	1407	1037
o	1	lambda	1400	1025	1407	1037
MML	2	"<mi xml:id="0:">\n λ\n</mi>\n"	0	0	0	0
FR	4	1138	1050	1265	1083
o	1	r	1174	1050	1185	1083
o	2	three	1213	1050	1223	1083
o	3	k	1227	1050	1238	1083
R	4	HORIZONTAL	1	2	0	0
R	5	HORIZONTAL	2	3	0	0
MML	6	"<mrow>\n <mi xml:id="0:">\n  r\n </mi>\n <mn xml:id="1:">\n  3\n </mn>\n <mi xml:id="2:">\n  k\n </mi>\n</mrow>"	0	0	0	0
FR	5	1266	1186	1698	1309
o	1	P	1266	1234	1287	1263
o	2	u	1289	1255	1299	1269
o	3	i	1301	1234	1312	1270
o	4	i	1312	1243	1331	1263
o	5	RightPar	1331	1235	1344	1271
o	6	equal	1354	1243	1376	1248
o	7	equal	1355	1250	1377	1254
o	8	minus	1393	1248	1698	1253
o	9	sum	1397	1256	1442	1309
o	10	sum	1425	1187	1469	1244
o	11	minus	1444	1299	1471	1309
o	12	equal	1471	1230	1499	1245
o	13	r	1476	1295	1496	1309
o	14	sigma	1502	1226	1524	1245
o	15	comma	1507	1299	1530	1309
o	16	r	1535	1295	1549	1309
o	17	M	1555	1267	1596	1298
o	18	LeftPar	1600	1255	1613	1305
o	19	w	1610	1276	1640	1297
o	20	l	1614	1186	1636	1236
o	21	M	1640	1256	1682	1306
R	22	RSUB	1	2	0	0
R	23	HORIZONTAL	1	3	0	0
R	24	HORIZONTAL	3	4	0	0
R	25	HORIZONTAL	4	5	0	0
R	26	HORIZONTAL	5	6	0	0
R	27	HORIZONTAL	6	7	0	0
R	28	HORIZONTAL	7	8	0	0
R	29	UNDER	8	9	0	0
R	30	UPPER	8	20	0	0
R	31	HORIZONTAL	9	11	0	0
R	32	UNDER	10	1	0	0
R	33	HORIZONTAL	10	12	0	0
R	34	HORIZONTAL	11	13	0	0
R	35	HORIZONTAL	12	14	0	0
R	36	HORIZONTAL	13	15	0	0
R	37	HORIZONTAL	15	16	0	0
R	38	HORIZONTAL	16	17	0	0
R	39	HORIZONTAL	17	18	0	0
R	40	HORIZONTAL	18	19	0	0
R	41	HORIZONTAL	19	21	0	0
MML	42	"<mrow>\n <munder>\n  <mo xml:id="9:">\n   ∑\n  </mo>\n  <mrow>\n   <msub>\n    <mi xml:id="0:">\n     P\n    </mi>\n    <mi xml:id="1:">\n     u\n    </mi>\n   </msub>\n   <mi xml:id="2:">\n    i\n   </mi>\n   <mi xml:id="3:">\n    i\n   </mi>\n   <mi xml:id="4:">\n    )\n   </mi>\n   <mo xml:id="5:">\n    =\n   </mo>\n   <mo xml:id="6:">\n    =\n   </mo>\n   <mfrac xml:id="7:">\n    <mi xml:id="19:">\n     l\n    </mi>\n    <mrow>\n     <mo xml:id="8:">\n      ∑\n     </mo>\n     <mo xml:id="10:">\n      -\n     </mo>\n     <mi xml:id="12:">\n      r\n     </mi>\n     <mo xml:id="14:">\n      ,\n     </mo>\n     <mi xml:id="15:">\n      r\n     </mi>\n     <mi xml:id="16:">\n      M\n     </mi>\n     <mi xml:id="17:">\n      (\n     </mi>\n     <mi xml:id="18:">\n      w\n     </mi>\n     <mi xml:id="20:">\n      M\n     </mi>\n    </mrow>\n   </mfrac>\n  </mrow>\n </munder>\n <mo xml:id="11:">\n  =\n </mo>\n <mi xml:id="13:">\n  σ\n </mi>\n</mrow>"	0	0	0	0
FR	6	1177	1917	1285	1948
o	1	H	1250	1917	1279	1948
MML	2	"<mi xml:id="0:">\n H\n</mi>"	0	0	0	0
FR	7	699	2266	730	2289
o	1	n	723	2278	730	2289
MML	2	"<mi xml:id="0:">\n n\n</mi>"	0	0	0	0
FR	8	818	2300	928	2332
o	1	c	839	2319	849	2332
o	2	one	887	2319	892	2331
o	3	k	893	2301	897	2332
o	4	X	898	2308	916	2326
o	5	RightPar	917	2300	928	2332
R	6	HORIZONTAL	1	2	0	0
R	7	HORIZONTAL	2	3	0	0
R	8	HORIZONTAL	3	4	0	0
R	9	HORIZONTAL	4	5	0	0
MML	10	"<mrow>\n <mi xml:id="0:">\n  c\n </mi>\n <mn xml:id="1:">\n  1\n </mn>\n <mi xml:id="2:">\n  k\n </mi>\n <mi xml:id="3:">\n  X\n </mi>\n <mi xml:id="4:">\n  )\n </mi>\n</mrow>"	0	0	0	0
FR	9	833	2342	1024	2374
o	1	dot	882	2356	893	2362
o	2	LeftPar	922	2343	945	2374
o	3	one	970	2361	976	2373
o	4	x	982	2349	1000	2367
o	5	RightPar	1001	2342	1011	2374
o	6	RightPar	1013	2342	1024	2374
R	7	HORIZONTAL	1	2	0	0
R	8	RSUB	2	3	0	0
R	9	HORIZONTAL	2	4	0	0
R	10	HORIZONTAL	4	5	0	0
R	11	HORIZONTAL	5	6	0	0
MML	12	"<mrow>\n <mo xml:id="0:">\n  .\n </mo>\n <msub>\n  <mi xml:id="1:">\n   (\n  </mi>\n  <mn xml:id="2:">\n   1\n  </mn>\n </msub>\n <mi xml:id="3:">\n  x\n </mi>\n <mi xml:id="4:">\n  )\n </mi>\n <mi xml:id="5:">\n  )\n </mi>\n</mrow>"	0	0	0	0
FR	10	576	2384	829	2417
o	1	m	609	2391	660	2410
o	2	L	660	2388	686	2410
o	3	i	704	2384	724	2416
R	4	HORIZONTAL	1	2	0	0
R	5	HORIZONTAL	2	3	0	0
MML	6	"<mrow>\n <mi xml:id="0:">\n  m\n </mi>\n <mi xml:id="1:">\n  L\n </mi>\n <mi xml:id="2:">\n  i\n </mi>\n</mrow>"	0	0	0	0
FR	11	708	2427	779	2458
S	1	p	708	2433	727	2458
S	2	c	727	2444	737	2457
S	3	(	738	2427	749	2458
S	4	x	749	2434	767	2451
S	5	)	768	2427	779	2458
FR	12	561	2466	1141	2500
o	1	epsilon	669	2471	712	2493
o	2	d	712	2467	734	2499
o	3	RightPar	771	2466	783	2499
o	4	epsilon	840	2486	850	2498
o	5	LeftPar	851	2467	862	2498
o	6	t	1003	2471	1013	2492
o	7	infty	1014	2475	1045	2492
o	8	d	1046	2467	1068	2499
o	9	w	1069	2475	1096	2491
o	10	RightPar	1093	2467	1104	2499
o	11	vert	1107	2467	1110	2498
o	12	x	1112	2475	1129	2492
o	13	RightPar	1130	2467	1141	2499
R	14	HORIZONTAL	1	2	0	0
R	15	HORIZONTAL	2	3	0	0
R	16	HORIZONTAL	3	4	0	0
R	17	HORIZONTAL	4	5	0	0
R	18	HORIZONTAL	5	6	0	0
R	19	HORIZONTAL	6	7	0	0
R	20	HORIZONTAL	7	8	0	0
R	21	HORIZONTAL	8	9	0	0
R	22	HORIZONTAL	9	10	0	0
R	23	HORIZONTAL	10	11	0	0
R	24	HORIZONTAL	11	12	0	0
R	25	HORIZONTAL	12	13	0	0
MML	26	"<mrow>\n <mi xml:id="0:">\n  ε\n </mi>\n <mi xml:id="1:">\n  d\n </mi>\n <mi xml:id="2:">\n  )\n </mi>\n <mi xml:id="3:">\n  ε\n </mi>\n <mi xml:id="4:">\n  (\n </mi>\n <mi xml:id="5:">\n  t\n </mi>\n <mi xml:id="6:">\n  ∞\n </mi>\n <mi xml:id="7:">\n  d\n </mi>\n <mi xml:id="8:">\n  w\n </mi>\n <mi xml:id="9:">\n  )\n </mi>\n <mi xml:id="10:">\n  \\vert\n </mi>\n <mi xml:id="11:">\n  x\n </mi>\n <mi xml:id="12:">\n  )\n </mi>\n</mrow>"	0	0	0	0
FR	13	1406	2508	1627	2541
o	1	m	1478	2516	1512	2535
o	2	t	1513	2512	1539	2535
o	3	H	1539	2516	1556	2535
o	4	LeftPar	1567	2508	1578	2541
o	5	chi	1579	2516	1606	2534
o	6	RightPar	1616	2508	1627	2541
R	7	HORIZONTAL	1	2	0	0
R	8	HORIZONTAL	2	3	0	0
R	9	HORIZONTAL	3	4	0	0
R	10	HORIZONTAL	4	5	0	0
R	11	HORIZONTAL	5	6	0	0
MML	12	"<mrow>\n <mi xml:id="0:">\n  m\n </mi>\n <mi xml:id="1:">\n  t\n </mi>\n <mi xml:id="2:">\n  H\n </mi>\n <mi xml:id="3:">\n  (\n </mi>\n <mi xml:id="4:">\n  χ\n </mi>\n <mi xml:id="5:">\n  )\n </mi>\n</mrow>"	0	0	0	0
FR	14	824	2595	1397	2628
o	1	D	868	2595	937	2621
o	2	m	1015	2603	1038	2621
o	3	Lambda	1034	2597	1039	2601
o	4	ldots	1098	2604	1103	2608
o	5	s	1198	2603	1229	2620
o	6	r	1273	2604	1289	2620
o	7	e	1287	2603	1303	2621
o	8	i	1321	2604	1330	2620
o	9	i	1327	2597	1331	2601
o	10	a	1348	2600	1366	2620
o	11	i	1363	2597	1368	2601
R	12	HORIZONTAL	1	2	0	0
R	13	UPPER	2	3	0	0
R	14	HORIZONTAL	2	4	0	0
R	15	HORIZONTAL	4	9	0	0
R	16	HORIZONTAL	5	6	0	0
R	17	HORIZONTAL	6	7	0	0
R	18	HORIZONTAL	7	8	0	0
R	19	HORIZONTAL	8	10	0	0
R	20	HORIZONTAL	9	5	0	0
R	21	HORIZONTAL	10	11	0	0
MML	22	"<mrow>\n <mi xml:id="0:">\n  D\n </mi>\n <munder>\n  <mi xml:id="2:">\n   Λ\n  </mi>\n  <mi xml:id="1:">\n   m\n  </mi>\n </munder>\n <mo xml:id="3:">\n  …\n </mo>\n <mi xml:id="8:">\n  i\n </mi>\n <mi xml:id="4:">\n  s\n </mi>\n <mi xml:id="5:">\n  r\n </mi>\n <mi xml:id="6:">\n  e\n </mi>\n <mi xml:id="7:">\n  i\n </mi>\n <mi xml:id="9:">\n  a\n </mi>\n <mi xml:id="10:">\n  i\n </mi>\n</mrow>"	0	0	0	0
P	4
FR	1	434	656	572	696
o	1	alpha	454	663	520	692
o	2	one	540	656	564	691
o	3	semicolon	566	687	572	696
R	4	HORIZONTAL	1	2	0	0
R	5	PUNC	2	3	0	0
MML	6	"<mrow>\n <mi xml:id="0:">\n  α\n </mi>\n <mn xml:id="1:">\n  1\n </mn>\n <mi xml:id="2:">\n  ;\n </mi>\n</mrow>"	0	0	0	0
FR	2	700	1526	844	1557
o	1	r	754	1533	768	1552
o	2	N	768	1526	812	1553
o	3	epsilon	814	1529	840	1553
o	4	M	841	1547	844	1552
R	5	HORIZONTAL	1	2	0	0
R	6	HORIZONTAL	2	3	0	0
R	7	HORIZONTAL	3	4	0	0
MML	8	"<mrow>\n <mi xml:id="0:">\n  r\n </mi>\n <mi xml:id="1:">\n  N\n </mi>\n <mi xml:id="2:">\n  ε\n </mi>\n <mi xml:id="3:">\n  M\n </mi>\n</mrow>"	0	0	0	0
FR	3	1618	1926	1736	1954
o	1	alpha	1618	1933	1642	1954
o	2	zero	1641	1926	1681	1953
o	3	notequal	1641	1935	1662	1938
R	4	HORIZONTAL	1	3	0	0
R	5	HORIZONTAL	3	2	0	0
MML	6	"<mrow>\n <mi xml:id="0:">\n  α\n </mi>\n <mi xml:id="2:">\n  ≠\n </mi>\n <mn xml:id="1:">\n  0\n </mn>\n</mrow>"	0	0	0	0
FR	4	1558	2376	1693	2410
o	1	kappa	1558	2376	1598	2409
o	2	minus	1620	2385	1641	2389
R	3	HORIZONTAL	1	2	0	0
MML	4	"<mrow>\n <mi xml:id="0:">\n  κ\n </mi>\n <mo xml:id="1:">\n  -\n </mo>\n</mrow>"	0	0	0	0
FR	5	1610	2465	1770	2500
o	1	H	1610	2466	1649	2500
MML	2	"<mi xml:id="0:">\n H\n</mi>"	0	0	0	0
P	5
FR	1	842	296	1436	384
o	1	W	842	296	1436	384
o	2	three	904	383	931	384
o	3	D	966	383	992	384
o	4	two	995	383	997	384
o	5	two	1000	383	1024	384
o	6	plus	1026	383	1027	384
o	7	minus	1069	383	1081	384
o	8	M	1096	383	1108	384
o	9	g	1109	383	1111	384
o	10	a	1130	383	1138	384
o	11	C	1164	383	1173	384
o	12	BigLeftPar	1198	383	1203	384
o	13	C	1204	383	1205	384
o	14	two	1226	383	1231	384
o	15	Gamma	1260	383	1262	384
o	16	alpha	1382	313	1403	336
R	17	RSUB	1	2	0	0
R	18	UNDER	1	16	0	0
R	19	HORIZONTAL	2	3	0	0
R	20	HORIZONTAL	3	4	0	0
R	21	HORIZONTAL	4	5	0	0
R	22	RSUP	5	6	0	0
R	23	HORIZONTAL	6	7	0	0
R	24	HORIZONTAL	7	8	0	0
R	25	HORIZONTAL	9	10	0	0
R	26	HORIZONTAL	10	11	0	0
R	27	HORIZONTAL	11	12	0	0
R	28	HORIZONTAL	12	13	0	0
R	29	HORIZONTAL	13	14	0	0
R	30	HORIZONTAL	14	15	0	0
R	31	HORIZONTAL	15	1	0	0
MML	32	"<mrow>\n <mi xml:id="8:">\n  g\n </mi>\n <mi xml:id="9:">\n  a\n </mi>\n <mi xml:id="10:">\n  C\n </mi>\n <mi xml:id="11:">\n  [\n </mi>\n <mi xml:id="12:">\n  C\n </mi>\n <mn xml:id="13:">\n  2\n </mn>\n <mi xml:id="14:">\n  Γ\n </mi>\n <msub>\n  <munder>\n   <mi xml:id="0:">\n    W\n   </mi>\n   <mi xml:id="15:">\n    α\n   </mi>\n  </munder>\n  <mrow>\n   <mn xml:id="1:">\n    3\n   </mn>\n   <mi xml:id="2:">\n    D\n   </mi>\n   <mn xml:id="3:">\n    2\n   </mn>\n   <msup>\n    <mn xml:id="4:">\n     2\n    </mn>\n    <mrow>\n     <mo xml:id="5:">\n      +\n     </mo>\n     <mo xml:id="6:">\n      -\n     </mo>\n     <mi xml:id="7:">\n      M\n     </mi>\n    </mrow>\n   </msup>\n  </mrow>\n </msub>\n</mrow>"	0	0	0	0
FR	2	1180	390	1800	472
o	1	Delta	1180	390	1800	432
o	2	equal	1263	442	1267	446
o	3	equal	1389	442	1393	447
o	4	pi	1433	442	1437	447
o	5	t	1438	441	1448	466
o	6	one	1453	442	1457	447
o	7	alpha	1505	447	1527	466
o	8	RightPar	1548	462	1553	466
o	9	colon	1592	461	1597	470
o	10	semicolon	1676	462	1681	466
o	11	infty	1713	449	1741	467
R	12	HORIZONTAL	2	1	0	0
R	13	HORIZONTAL	3	4	0	0
R	14	RSUB	4	5	0	0
R	15	HORIZONTAL	5	2	0	0
R	16	RSUP	5	6	0	0
R	17	HORIZONTAL	6	7	0	0
R	18	HORIZONTAL	7	8	0	0
R	19	PUNC	8	9	0	0
R	20	HORIZONTAL	9	10	0	0
R	21	HORIZONTAL	10	11	0	0
MML	22	"<mrow>\n <mo xml:id="2:">\n  =\n </mo>\n <msub>\n  <mi xml:id="3:">\n   π\n  </mi>\n  <mrow>\n   <msup>\n    <mi xml:id="4:">\n     t\n    </mi>\n    <mrow>\n     <mn xml:id="5:">\n      1\n     </mn>\n     <mi xml:id="6:">\n      α\n     </mi>\n     <mi xml:id="7:">\n      )\n     </mi>\n     <mi xml:id="8:">\n      &amp;colon\n     </mi>\n     <mi xml:id="9:">\n      ;\n     </mi>\n     <mi xml:id="10:">\n      ∞\n     </mi>\n    </mrow>\n   </msup>\n   <mo xml:id="1:">\n    =\n   </mo>\n   <mi xml:id="0:">\n    Δ\n   </mi>\n  </mrow>\n </msub>\n</mrow>"	0	0	0	0
FR	3	1133	877	1236	910
o	1	alpha	1143	884	1166	904
o	2	dot	1187	899	1191	904
o	3	p	1230	899	1236	907
R	4	HORIZONTAL	1	2	0	0
R	5	HORIZONTAL	2	3	0	0
MML	6	"<mrow>\n <mi xml:id="0:">\n  α\n </mi>\n <mo xml:id="1:">\n  .\n </mo>\n <mi xml:id="2:">\n  p\n </mi>\n</mrow>"	0	0	0	0
FR	4	1335	878	1401	907
o	1	s	1353	886	1381	904
MML	2	"<mi xml:id="0:">\n s\n</mi>"	0	0	0	0
FR	5	986	1058	1102	1090
o	1	alpha	986	1064	1009	1084
o	2	T	1008	1066	1029	1070
o	3	v	1050	1079	1056	1085
o	4	three	1097	1079	1102	1090
R	5	RSUP	1	2	0	0
R	6	HORIZONTAL	1	3	0	0
R	7	HORIZONTAL	3	4	0	0
MML	8	"<mrow>\n <msup>\n  <mi xml:id="0:">\n   α\n  </mi>\n  <mi xml:id="1:">\n   T\n  </mi>\n </msup>\n <mi xml:id="2:">\n  v\n </mi>\n <mn xml:id="3:">\n  3\n </mn>\n</mrow>"	0	0	0	0
FR	6	823	1102	867	1137
o	1	G	835	1102	867	1131
MML	2	"<mi xml:id="0:">\n G\n</mi>"	0	0	0	0
FR	7	887	1102	1029	1137
o	1	minus	887	1112	909	1115
o	2	C	978	1118	999	1122
o	3	one	1003	1103	1013	1131
o	4	RightPar	1018	1102	1029	1137
R	5	HORIZONTAL	1	2	0	0
R	6	HORIZONTAL	2	3	0	0
R	7	HORIZONTAL	3	4	0	0
MML	8	"<mrow>\n <mo xml:id="0:">\n  -\n </mo>\n <mi xml:id="1:">\n  C\n </mi>\n <mn xml:id="2:">\n  1\n </mn>\n <mi xml:id="3:">\n  )\n </mi>\n</mrow>"	0	0	0	0
FR	8	486	1377	654	1410
o	1	j	486	1384	497	1410
o	2	i	493	1377	497	1381
o	3	M	499	1377	537	1404
o	4	five	556	1384	585	1403
o	5	e	624	1384	654	1403
R	6	HORIZONTAL	1	2	0	0
R	7	HORIZONTAL	2	3	0	0
R	8	HORIZONTAL	3	4	0	0
R	9	HORIZONTAL	4	5	0	0
MML	10	"<mrow>\n <mi xml:id="0:">\n  j\n </mi>\n <mi xml:id="1:">\n  i\n </mi>\n <mi xml:id="2:">\n  M\n </mi>\n <mn xml:id="3:">\n  5\n </mn>\n <mi xml:id="4:">\n  e\n </mi>\n</mrow>"	0	0	0	0
FR	9	770	1465	856	1497
S	1	W	770	1465	806	1492
S	2	S	806	1465	824	1492
S	3	D	826	1465	853	1493
S	4	COMMA	855	1487	856	1497
FR	10	531	1646	592	1681
o	1	H	531	1646	581	1681
MML	2	"<mi xml:id="0:">\n H\n</mi>"	0	0	0	0
FR	11	812	1691	899	1724
S	1	W	812	1691	849	1720
S	2	S	849	1691	867	1720
S	3	D	869	1691	896	1719
S	4	COMMA	898	1714	899	1724
FR	12	1745	2049	1908	2076
o	1	M	1769	2049	1835	2076
o	2	two	1891	2049	1897	2059
R	3	HORIZONTAL	1	2	0	0
MML	4	"<mrow>\n <mi xml:id="0:">\n  M\n </mi>\n <mn xml:id="1:">\n  2\n </mn>\n</mrow>"	0	0	0	0
FR	13	1395	2052	1474	2076
S	1	W	1395	2052	1430	2076
S	2	S	1431	2052	1449	2076
S	3	D	1451	2052	1474	2076
P	6
FR	1	639	355	913	389
o	1	comma	724	378	730	387
o	2	ldots	784	377	789	382
o	3	partial	882	355	910	387
R	4	HORIZONTAL	1	2	0	0
R	5	HORIZONTAL	2	3	0	0
MML	6	"<mrow>\n <mo xml:id="0:">\n  ,\n </mo>\n <mo xml:id="1:">\n  …\n </mo>\n <mo xml:id="2:">\n  ∂\n </mo>\n</mrow>"	0	0	0	0
FR	2	1251	377	1377	402
o	1	Omega	1251	378	1316	402
o	2	minus	1341	391	1351	396
o	3	seven	1353	377	1369	402
o	4	semicolon	1371	384	1377	390
o	5	colon	1372	397	1377	402
R	6	HORIZONTAL	1	2	0	0
R	7	HORIZONTAL	2	3	0	0
R	8	HORIZONTAL	3	4	0	0
R	9	HORIZONTAL	4	5	0	0
MML	10	"<mrow>\n <mi xml:id="0:">\n  Ω\n </mi>\n <mo xml:id="1:">\n  -\n </mo>\n <mn xml:id="2:">\n  7\n </mn>\n <mi xml:id="3:">\n  ;\n </mi>\n <mi xml:id="4:">\n  &amp;colon\n </mi>\n</mrow>"	0	0	0	0
FR	3	1251	377	1369	402
o	1	Omega	1251	378	1316	402
o	2	dot	1341	391	1351	396
o	3	seven	1353	377	1369	402
R	4	HORIZONTAL	1	2	0	0
R	5	HORIZONTAL	2	3	0	0
MML	6	"<mrow>\n <mi xml:id="0:">\n  Ω\n </mi>\n <mo xml:id="1:">\n  .\n </mo>\n <mn xml:id="2:">\n  7\n </mn>\n</mrow>"	0	0	0	0
FR	4	1799	457	1938	489
o	1	T	1799	458	1831	489
o	2	E	1826	458	1871	484
o	3	subset	1894	473	1904	478
o	4	ldots	1934	479	1938	484
R	5	HORIZONTAL	1	2	0	0
R	6	HORIZONTAL	2	3	0	0
R	7	HORIZONTAL	3	4	0	0
MML	8	"<mrow>\n <mi xml:id="0:">\n  T\n </mi>\n <mi xml:id="1:">\n  E\n </mi>\n <mo xml:id="2:">\n  &amp;subset\n </mo>\n <mo xml:id="3:">\n  …\n </mo>\n</mrow>"	0	0	0	0
FR	5	1799	458	1938	489
o	1	T	1799	458	1831	489
o	2	E	1826	458	1871	484
o	3	subset	1894	473	1904	478
o	4	ldots	1934	479	1938	484
R	5	HORIZONTAL	1	2	0	0
R	6	HORIZONTAL	2	3	0	0
R	7	HORIZONTAL	3	4	0	0
MML	8	"<mrow>\n <mi xml:id="0:">\n  T\n </mi>\n <mi xml:id="1:">\n  E\n </mi>\n <mo xml:id="2:">\n  &amp;subset\n </mo>\n <mo xml:id="3:">\n  …\n </mo>\n</mrow>"	0	0	0	0
FR	6	1603	792	1699	825
o	1	H	1610	792	1699	824
MML	2	"<mi xml:id="0:">\n H\n</mi>"	0	0	0	0
FR	7	826	811	1017	845
o	1	Y	919	813	939	839
o	2	M	935	813	952	838
o	3	C	951	812	975	839
o	4	R	984	813	1007	838
R	5	HORIZONTAL	1	2	0	0
R	6	HORIZONTAL	2	3	0	0
R	7	HORIZONTAL	3	4	0	0
MML	8	"<mrow>\n <mi xml:id="0:">\n  Y\n </mi>\n <mi xml:id="1:">\n  M\n </mi>\n <mi xml:id="2:">\n  C\n </mi>\n <mi xml:id="3:">\n  R\n </mi>\n</mrow>"	0	0	0	0
FR	8	829	1228	1022	1259
o	1	M	923	1228	956	1253
o	2	minus	955	1228	979	1254
o	3	k	988	1228	1010	1253
R	4	HORIZONTAL	1	2	0	0
R	5	HORIZONTAL	2	3	0	0
MML	6	"<mrow>\n <mi xml:id="0:">\n  M\n </mi>\n <mo xml:id="1:">\n  -\n </mo>\n <mi xml:id="2:">\n  k\n </mi>\n</mrow>"	0	0	0	0
FR	9	776	1561	823	1587
S	1	U	776	1562	802	1587
S	2	C	800	1561	823	1587
FR	10	436	1644	702	1671
o	1	minus	595	1659	605	1663
o	2	infty	606	1644	623	1670
o	3	seven	624	1644	640	1669
o	4	Y	653	1644	670	1670
o	5	a	671	1644	688	1670
o	6	three	689	1644	702	1670
R	7	HORIZONTAL	1	2	0	0
R	8	HORIZONTAL	2	3	0	0
R	9	HORIZONTAL	3	4	0	0
R	10	RSUB	4	5	0	0
R	11	HORIZONTAL	5	6	0	0
MML	12	"<mrow>\n <mo xml:id="0:">\n  -\n </mo>\n <mi xml:id="1:">\n  ∞\n </mi>\n <mn xml:id="2:">\n  7\n </mn>\n <msub>\n  <mi xml:id="3:">\n   Y\n  </mi>\n  <mrow>\n   <mi xml:id="4:">\n    a\n   </mi>\n   <mn xml:id="5:">\n    3\n   </mn>\n  </mrow>\n </msub>\n</mrow>"	0	0	0	0
FR	11	1426	1792	1576	1824
o	1	a	1453	1799	1481	1817
o	2	V	1497	1792	1571	1824
R	3	HORIZONTAL	1	2	0	0
MML	4	"<mrow>\n <mi xml:id="0:">\n  a\n </mi>\n <mi xml:id="1:">\n  V\n </mi>\n</mrow>"	0	0	0	0
FR	12	878	1852	1019	1884
o	1	alpha	878	1852	951	1883
o	2	minus	974	1867	985	1871
o	3	three	986	1853	1003	1877
R	4	HORIZONTAL	1	2	0	0
R	5	HORIZONTAL	2	3	0	0
MML	6	"<mrow>\n <mi xml:id="0:">\n  α\n </mi>\n <mo xml:id="1:">\n  -\n </mo>\n <mn xml:id="2:">\n  3\n </mn>\n</mrow>"	0	0	0	0
FR	13	1255	1916	1319	1942
S	1	A	1255	1917	1277	1942
S	2	C	1280	1916	1304	1942
S	3	L	1301	1917	1319	1942
FR	14	1337	1916	1460	1941
o	1	X	1390	1916	1460	1941
MML	2	"<mi xml:id="0:">\n X\n</mi>"	0	0	0	0
FR	15	787	2060	903	2084
o	1	H	787	2060	852	2084
MML	2	"<mi xml:id="0:">\n H\n</mi>"	0	0	0	0
FR	16	882	2224	1023	2257
o	1	a	882	2224	955	2255
o	2	dot	978	2238	988	2243
R	3	HORIZONTAL	1	2	0	0
MML	4	"<mrow>\n <mi xml:id="0:">\n  a\n </mi>\n <mo xml:id="1:">\n  .\n </mo>\n</mrow>"	0	0	0	0
FR	17	442	2554	643	2581
o	1	M	487	2555	547	2581
MML	2	"<mi xml:id="0:">\n M\n</mi>"	0	0	0	0
