FormulaId	DocumentId	PageId	FormulaRegionId	VisualId	MinX	MinY	MaxX	MaxY	Location	Latex	formula_vector
97	A00-3007	1	1	87	1828	1270	1913	1298	/home/rlaz/reorg/MathSeer-extraction-pipeline/modules/qdgga/A00-3007.pdf	x	
98	A00-3007	1	3	88	1659	2294	1744	2321	/home/rlaz/reorg/MathSeer-extraction-pipeline/modules/qdgga/A00-3007.pdf	m f Z	
99	A00-3007	2	1	89	673	308	1496	396	/home/rlaz/reorg/MathSeer-extraction-pipeline/modules/qdgga/A00-3007.pdf	w t α π - ∞ i \&ast R ˜	
100	A00-3007	2	2	90	1598	593	1645	619	/home/rlaz/reorg/MathSeer-extraction-pipeline/modules/qdgga/A00-3007.pdf	α 1 \&leqq	
101	A00-3007	2	4	91	1424	908	1967	943	/home/rlaz/reorg/MathSeer-extraction-pipeline/modules/qdgga/A00-3007.pdf	f x s \&approx H i hat i	
102	A00-3007	2	5	92	1230	953	1677	989	/home/rlaz/reorg/MathSeer-extraction-pipeline/modules/qdgga/A00-3007.pdf	"( w
x p ˜ ( S 4"	
103	A00-3007	2	6	93	1425	998	1611	1033	/home/rlaz/reorg/MathSeer-extraction-pipeline/modules/qdgga/A00-3007.pdf	b α M ε C ′	
104	A00-3007	2	7	94	795	1000	881	1028	/home/rlaz/reorg/MathSeer-extraction-pipeline/modules/qdgga/A00-3007.pdf	1 α z t ′	
105	A00-3007	2	10	95	818	1449	967	1483	/home/rlaz/reorg/MathSeer-extraction-pipeline/modules/qdgga/A00-3007.pdf	"ε Y i
\textbackslash\textbackslash vert"	
106	A00-3007	2	11	96	1239	1489	1861	1575	/home/rlaz/reorg/MathSeer-extraction-pipeline/modules/qdgga/A00-3007.pdf	"P ( m s ε ) × ( 1 - ∏
\ldots{} ∞ ( - P ( Y i i \textbackslash\textbackslash vert S p ε 4 ) )"	
107	A00-3007	2	12	97	1762	1680	1897	1715	/home/rlaz/reorg/MathSeer-extraction-pipeline/modules/qdgga/A00-3007.pdf	m t	
108	A00-3007	2	13	98	1232	1726	1415	1761	/home/rlaz/reorg/MathSeer-extraction-pipeline/modules/qdgga/A00-3007.pdf	C 1 S m e	
109	A00-3007	2	14	99	1712	1770	1909	1805	/home/rlaz/reorg/MathSeer-extraction-pipeline/modules/qdgga/A00-3007.pdf	∂ ( m i 1 ε	
110	A00-3007	2	15	100	607	2610	845	2643	/home/rlaz/reorg/MathSeer-extraction-pipeline/modules/qdgga/A00-3007.pdf	S m M	
111	A00-3007	2	16	100	607	2610	843	2643	/home/rlaz/reorg/MathSeer-extraction-pipeline/modules/qdgga/A00-3007.pdf	S m M	
112	A00-3007	3	1	101	301	592	444	628	/home/rlaz/reorg/MathSeer-extraction-pipeline/modules/qdgga/A00-3007.pdf	i α V i	
113	A00-3007	3	2	102	1264	867	1681	985	/home/rlaz/reorg/MathSeer-extraction-pipeline/modules/qdgga/A00-3007.pdf	"( v
\textbackslash\textbackslash vert \textbackslash\textbackslash vert s )
= = i 1 ∏ ∑ , φ M \textbackslash\textbackslash vert w
\textbackslash\textbackslash vert x {]}"	
114	A00-3007	3	3	103	1372	1013	1407	1037	/home/rlaz/reorg/MathSeer-extraction-pipeline/modules/qdgga/A00-3007.pdf	λ	
115	A00-3007	3	4	104	1138	1050	1265	1083	/home/rlaz/reorg/MathSeer-extraction-pipeline/modules/qdgga/A00-3007.pdf	r 3 k	
116	A00-3007	3	5	105	1266	1186	1698	1309	/home/rlaz/reorg/MathSeer-extraction-pipeline/modules/qdgga/A00-3007.pdf	∑ P u i i ) = = l ∑ - r , r M ( w M = σ	
117	A00-3007	3	6	106	1177	1917	1285	1948	/home/rlaz/reorg/MathSeer-extraction-pipeline/modules/qdgga/A00-3007.pdf	H	
118	A00-3007	3	7	107	699	2266	730	2289	/home/rlaz/reorg/MathSeer-extraction-pipeline/modules/qdgga/A00-3007.pdf	n	
119	A00-3007	3	8	108	818	2300	928	2332	/home/rlaz/reorg/MathSeer-extraction-pipeline/modules/qdgga/A00-3007.pdf	c 1 k X )	
120	A00-3007	3	9	109	833	2342	1024	2374	/home/rlaz/reorg/MathSeer-extraction-pipeline/modules/qdgga/A00-3007.pdf	. ( 1 x ) )	
121	A00-3007	3	10	110	576	2384	829	2417	/home/rlaz/reorg/MathSeer-extraction-pipeline/modules/qdgga/A00-3007.pdf	m L i	
122	A00-3007	3	11	111	708	2427	779	2458	/home/rlaz/reorg/MathSeer-extraction-pipeline/modules/qdgga/A00-3007.pdf	"ε d ) ε ( t ∞ d w ) \textbackslash\textbackslash vert
x )"	
123	A00-3007	3	13	112	1406	2508	1627	2541	/home/rlaz/reorg/MathSeer-extraction-pipeline/modules/qdgga/A00-3007.pdf	m t H ( χ )	
124	A00-3007	3	14	113	824	2595	1397	2628	/home/rlaz/reorg/MathSeer-extraction-pipeline/modules/qdgga/A00-3007.pdf	D Λ m \ldots{} i s r e i a i	
125	A00-3007	4	1	114	434	656	572	696	/home/rlaz/reorg/MathSeer-extraction-pipeline/modules/qdgga/A00-3007.pdf	α 1 ;	
126	A00-3007	4	2	115	700	1526	844	1557	/home/rlaz/reorg/MathSeer-extraction-pipeline/modules/qdgga/A00-3007.pdf	r N ε M	
127	A00-3007	4	3	116	1618	1926	1736	1954	/home/rlaz/reorg/MathSeer-extraction-pipeline/modules/qdgga/A00-3007.pdf	α ≠ 0	
128	A00-3007	4	4	117	1558	2376	1693	2410	/home/rlaz/reorg/MathSeer-extraction-pipeline/modules/qdgga/A00-3007.pdf	κ -	
129	A00-3007	4	5	106	1610	2465	1770	2500	/home/rlaz/reorg/MathSeer-extraction-pipeline/modules/qdgga/A00-3007.pdf	H	
130	A00-3007	5	1	118	842	296	1436	384	/home/rlaz/reorg/MathSeer-extraction-pipeline/modules/qdgga/A00-3007.pdf	g a C {[} C 2 Γ W α 3 D 2 2 + - M	
131	A00-3007	5	2	119	1251	377	1377	402	/home/rlaz/reorg/MathSeer-extraction-pipeline/modules/qdgga/A00-3007.pdf	Ω - 7 ; \&colon	
132	A00-3007	5	3	120	1251	377	1369	402	/home/rlaz/reorg/MathSeer-extraction-pipeline/modules/qdgga/A00-3007.pdf	Ω . 7	
133	A00-3007	5	4	121	1799	457	1938	489	/home/rlaz/reorg/MathSeer-extraction-pipeline/modules/qdgga/A00-3007.pdf	T E \&subset \ldots{}	
134	A00-3007	5	5	121	1799	458	1938	489	/home/rlaz/reorg/MathSeer-extraction-pipeline/modules/qdgga/A00-3007.pdf	T E \&subset \ldots{}	
135	A00-3007	5	6	106	1603	792	1699	825	/home/rlaz/reorg/MathSeer-extraction-pipeline/modules/qdgga/A00-3007.pdf	H	
136	A00-3007	5	7	122	826	811	1017	845	/home/rlaz/reorg/MathSeer-extraction-pipeline/modules/qdgga/A00-3007.pdf	Y M C R	
137	A00-3007	5	8	123	829	1228	1022	1259	/home/rlaz/reorg/MathSeer-extraction-pipeline/modules/qdgga/A00-3007.pdf	M - k	
138	A00-3007	5	9	124	776	1561	823	1587	/home/rlaz/reorg/MathSeer-extraction-pipeline/modules/qdgga/A00-3007.pdf	- ∞ 7 Y a 3	
139	A00-3007	5	11	125	1426	1792	1576	1824	/home/rlaz/reorg/MathSeer-extraction-pipeline/modules/qdgga/A00-3007.pdf	a V	
140	A00-3007	5	13	126	1255	1916	1319	1942	/home/rlaz/reorg/MathSeer-extraction-pipeline/modules/qdgga/A00-3007.pdf	X	
141	A00-3007	5	12	127	878	1852	1019	1884	/home/rlaz/reorg/MathSeer-extraction-pipeline/modules/qdgga/A00-3007.pdf	α - 3	
142	A00-3007	5	15	106	787	2060	903	2084	/home/rlaz/reorg/MathSeer-extraction-pipeline/modules/qdgga/A00-3007.pdf	H	
143	A00-3007	5	16	128	882	2224	1023	2257	/home/rlaz/reorg/MathSeer-extraction-pipeline/modules/qdgga/A00-3007.pdf	a .	
144	A00-3007	5	17	129	442	2554	643	2581	/home/rlaz/reorg/MathSeer-extraction-pipeline/modules/qdgga/A00-3007.pdf	M	
