FormulaId	DocumentId	PageId	FormulaRegionId	VisualId	MinX	MinY	MaxX	MaxY	Location	Latex	formula_vector
145	A00-3007	1	1	130	1828	1270	1913	1298	/home/rlaz/reorg/MathSeer-extraction-pipeline/modules/qdgga/A00-3007.pdf	x	
146	A00-3007	1	3	131	1659	2294	1744	2321	/home/rlaz/reorg/MathSeer-extraction-pipeline/modules/qdgga/A00-3007.pdf	m f Z	
147	A00-3007	2	1	132	673	308	1496	396	/home/rlaz/reorg/MathSeer-extraction-pipeline/modules/qdgga/A00-3007.pdf	w t α π - ∞ i \&ast R ˜	
148	A00-3007	2	2	133	1598	593	1645	619	/home/rlaz/reorg/MathSeer-extraction-pipeline/modules/qdgga/A00-3007.pdf	α 1 \&leqq	
149	A00-3007	2	4	134	1424	908	1967	943	/home/rlaz/reorg/MathSeer-extraction-pipeline/modules/qdgga/A00-3007.pdf	f x s \&approx H i hat i	
150	A00-3007	2	5	135	1230	953	1677	989	/home/rlaz/reorg/MathSeer-extraction-pipeline/modules/qdgga/A00-3007.pdf	"( w
x p ˜ ( S 4"	
151	A00-3007	2	6	136	1425	998	1611	1033	/home/rlaz/reorg/MathSeer-extraction-pipeline/modules/qdgga/A00-3007.pdf	b α M ε C ′	
152	A00-3007	2	7	137	795	1000	881	1028	/home/rlaz/reorg/MathSeer-extraction-pipeline/modules/qdgga/A00-3007.pdf	1 α z t ′	
153	A00-3007	2	10	138	818	1449	967	1483	/home/rlaz/reorg/MathSeer-extraction-pipeline/modules/qdgga/A00-3007.pdf	"ε Y i
\textbackslash\textbackslash vert"	
154	A00-3007	2	11	139	1239	1489	1861	1575	/home/rlaz/reorg/MathSeer-extraction-pipeline/modules/qdgga/A00-3007.pdf	"P ( m s ε ) × ( 1 - ∏
\ldots{} ∞ ( - P ( Y i i \textbackslash\textbackslash vert S p ε 4 ) )"	
155	A00-3007	2	12	140	1762	1680	1897	1715	/home/rlaz/reorg/MathSeer-extraction-pipeline/modules/qdgga/A00-3007.pdf	m t	
156	A00-3007	2	13	141	1232	1726	1415	1761	/home/rlaz/reorg/MathSeer-extraction-pipeline/modules/qdgga/A00-3007.pdf	C 1 S m e	
157	A00-3007	2	14	142	1712	1770	1909	1805	/home/rlaz/reorg/MathSeer-extraction-pipeline/modules/qdgga/A00-3007.pdf	∂ ( m i 1 ε	
158	A00-3007	2	15	143	607	2610	845	2643	/home/rlaz/reorg/MathSeer-extraction-pipeline/modules/qdgga/A00-3007.pdf	S m M	
159	A00-3007	2	16	143	607	2610	843	2643	/home/rlaz/reorg/MathSeer-extraction-pipeline/modules/qdgga/A00-3007.pdf	S m M	
160	A00-3007	3	1	144	301	592	444	628	/home/rlaz/reorg/MathSeer-extraction-pipeline/modules/qdgga/A00-3007.pdf	i α V i	
161	A00-3007	3	2	145	1264	867	1681	985	/home/rlaz/reorg/MathSeer-extraction-pipeline/modules/qdgga/A00-3007.pdf	"( v
\textbackslash\textbackslash vert \textbackslash\textbackslash vert s )
= = i 1 ∏ ∑ , φ M \textbackslash\textbackslash vert w
\textbackslash\textbackslash vert x {]}"	
162	A00-3007	3	3	146	1372	1013	1407	1037	/home/rlaz/reorg/MathSeer-extraction-pipeline/modules/qdgga/A00-3007.pdf	λ	
163	A00-3007	3	4	147	1138	1050	1265	1083	/home/rlaz/reorg/MathSeer-extraction-pipeline/modules/qdgga/A00-3007.pdf	r 3 k	
164	A00-3007	3	5	148	1266	1186	1698	1309	/home/rlaz/reorg/MathSeer-extraction-pipeline/modules/qdgga/A00-3007.pdf	∑ P u i i ) = = l ∑ - r , r M ( w M = σ	
165	A00-3007	3	6	149	1177	1917	1285	1948	/home/rlaz/reorg/MathSeer-extraction-pipeline/modules/qdgga/A00-3007.pdf	H	
166	A00-3007	3	7	150	699	2266	730	2289	/home/rlaz/reorg/MathSeer-extraction-pipeline/modules/qdgga/A00-3007.pdf	n	
167	A00-3007	3	8	151	818	2300	928	2332	/home/rlaz/reorg/MathSeer-extraction-pipeline/modules/qdgga/A00-3007.pdf	c 1 k X )	
168	A00-3007	3	9	152	833	2342	1024	2374	/home/rlaz/reorg/MathSeer-extraction-pipeline/modules/qdgga/A00-3007.pdf	. ( 1 x ) )	
169	A00-3007	3	10	153	576	2384	829	2417	/home/rlaz/reorg/MathSeer-extraction-pipeline/modules/qdgga/A00-3007.pdf	m L i	
170	A00-3007	3	11	154	708	2427	779	2458	/home/rlaz/reorg/MathSeer-extraction-pipeline/modules/qdgga/A00-3007.pdf	"ε d ) ε ( t ∞ d w ) \textbackslash\textbackslash vert
x )"	
171	A00-3007	3	13	155	1406	2508	1627	2541	/home/rlaz/reorg/MathSeer-extraction-pipeline/modules/qdgga/A00-3007.pdf	m t H ( χ )	
172	A00-3007	3	14	156	824	2595	1397	2628	/home/rlaz/reorg/MathSeer-extraction-pipeline/modules/qdgga/A00-3007.pdf	D Λ m \ldots{} i s r e i a i	
173	A00-3007	4	1	157	434	656	572	696	/home/rlaz/reorg/MathSeer-extraction-pipeline/modules/qdgga/A00-3007.pdf	α 1 ;	
174	A00-3007	4	2	158	700	1526	844	1557	/home/rlaz/reorg/MathSeer-extraction-pipeline/modules/qdgga/A00-3007.pdf	r N ε M	
175	A00-3007	4	3	159	1618	1926	1736	1954	/home/rlaz/reorg/MathSeer-extraction-pipeline/modules/qdgga/A00-3007.pdf	α ≠ 0	
176	A00-3007	4	4	160	1558	2376	1693	2410	/home/rlaz/reorg/MathSeer-extraction-pipeline/modules/qdgga/A00-3007.pdf	κ -	
177	A00-3007	4	5	149	1610	2465	1770	2500	/home/rlaz/reorg/MathSeer-extraction-pipeline/modules/qdgga/A00-3007.pdf	H	
178	A00-3007	5	1	161	842	296	1436	384	/home/rlaz/reorg/MathSeer-extraction-pipeline/modules/qdgga/A00-3007.pdf	g a C {[} C 2 Γ W α 3 D 2 2 + - M	
179	A00-3007	5	2	162	1251	377	1377	402	/home/rlaz/reorg/MathSeer-extraction-pipeline/modules/qdgga/A00-3007.pdf	Ω - 7 ; \&colon	
180	A00-3007	5	3	163	1251	377	1369	402	/home/rlaz/reorg/MathSeer-extraction-pipeline/modules/qdgga/A00-3007.pdf	Ω . 7	
181	A00-3007	5	4	164	1799	457	1938	489	/home/rlaz/reorg/MathSeer-extraction-pipeline/modules/qdgga/A00-3007.pdf	T E \&subset \ldots{}	
182	A00-3007	5	5	164	1799	458	1938	489	/home/rlaz/reorg/MathSeer-extraction-pipeline/modules/qdgga/A00-3007.pdf	T E \&subset \ldots{}	
183	A00-3007	5	6	149	1603	792	1699	825	/home/rlaz/reorg/MathSeer-extraction-pipeline/modules/qdgga/A00-3007.pdf	H	
184	A00-3007	5	7	165	826	811	1017	845	/home/rlaz/reorg/MathSeer-extraction-pipeline/modules/qdgga/A00-3007.pdf	Y M C R	
185	A00-3007	5	8	166	829	1228	1022	1259	/home/rlaz/reorg/MathSeer-extraction-pipeline/modules/qdgga/A00-3007.pdf	M - k	
186	A00-3007	5	9	167	776	1561	823	1587	/home/rlaz/reorg/MathSeer-extraction-pipeline/modules/qdgga/A00-3007.pdf	- ∞ 7 Y a 3	
187	A00-3007	5	11	168	1426	1792	1576	1824	/home/rlaz/reorg/MathSeer-extraction-pipeline/modules/qdgga/A00-3007.pdf	a V	
188	A00-3007	5	13	169	1255	1916	1319	1942	/home/rlaz/reorg/MathSeer-extraction-pipeline/modules/qdgga/A00-3007.pdf	X	
189	A00-3007	5	12	170	878	1852	1019	1884	/home/rlaz/reorg/MathSeer-extraction-pipeline/modules/qdgga/A00-3007.pdf	α - 3	
190	A00-3007	5	15	149	787	2060	903	2084	/home/rlaz/reorg/MathSeer-extraction-pipeline/modules/qdgga/A00-3007.pdf	H	
191	A00-3007	5	16	171	882	2224	1023	2257	/home/rlaz/reorg/MathSeer-extraction-pipeline/modules/qdgga/A00-3007.pdf	a .	
192	A00-3007	5	17	172	442	2554	643	2581	/home/rlaz/reorg/MathSeer-extraction-pipeline/modules/qdgga/A00-3007.pdf	M	
