FormulaId	DocumentId	PageId	FormulaRegionId	VisualId	MinX	MinY	MaxX	MaxY	Location	Latex	formula_vector
1	A00-3007	1	1	1	1828	1270	1913	1298	/home/rlaz/reorg/MathSeer-extraction-pipeline/modules/qdgga/A00-3007.pdf	x	
2	A00-3007	1	3	2	1659	2294	1744	2321	/home/rlaz/reorg/MathSeer-extraction-pipeline/modules/qdgga/A00-3007.pdf	m f Z	
3	A00-3007	2	1	3	673	308	1496	396	/home/rlaz/reorg/MathSeer-extraction-pipeline/modules/qdgga/A00-3007.pdf	w t α π - ∞ i \&ast R ˜	
4	A00-3007	2	2	4	1598	593	1645	619	/home/rlaz/reorg/MathSeer-extraction-pipeline/modules/qdgga/A00-3007.pdf	α 1 \&leqq	
5	A00-3007	2	4	5	1424	908	1967	943	/home/rlaz/reorg/MathSeer-extraction-pipeline/modules/qdgga/A00-3007.pdf	f x s \&approx H i hat i	
6	A00-3007	2	5	6	1230	953	1677	989	/home/rlaz/reorg/MathSeer-extraction-pipeline/modules/qdgga/A00-3007.pdf	"( w
x p ˜ ( S 4"	
7	A00-3007	2	6	7	1425	998	1611	1033	/home/rlaz/reorg/MathSeer-extraction-pipeline/modules/qdgga/A00-3007.pdf	b α M ε C ′	
8	A00-3007	2	7	8	795	1000	881	1028	/home/rlaz/reorg/MathSeer-extraction-pipeline/modules/qdgga/A00-3007.pdf	1 α z t ′	
9	A00-3007	2	10	9	818	1449	967	1483	/home/rlaz/reorg/MathSeer-extraction-pipeline/modules/qdgga/A00-3007.pdf	"ε Y i
\textbackslash\textbackslash vert"	
10	A00-3007	2	11	10	1239	1489	1861	1575	/home/rlaz/reorg/MathSeer-extraction-pipeline/modules/qdgga/A00-3007.pdf	"P ( m s ε ) × ( 1 - ∏
\ldots{} ∞ ( - P ( Y i i \textbackslash\textbackslash vert S p ε 4 ) )"	
11	A00-3007	2	12	11	1762	1680	1897	1715	/home/rlaz/reorg/MathSeer-extraction-pipeline/modules/qdgga/A00-3007.pdf	m t	
12	A00-3007	2	13	12	1232	1726	1415	1761	/home/rlaz/reorg/MathSeer-extraction-pipeline/modules/qdgga/A00-3007.pdf	C 1 S m e	
13	A00-3007	2	14	13	1712	1770	1909	1805	/home/rlaz/reorg/MathSeer-extraction-pipeline/modules/qdgga/A00-3007.pdf	∂ ( m i 1 ε	
14	A00-3007	2	15	14	607	2610	845	2643	/home/rlaz/reorg/MathSeer-extraction-pipeline/modules/qdgga/A00-3007.pdf	S m M	
15	A00-3007	2	16	14	607	2610	843	2643	/home/rlaz/reorg/MathSeer-extraction-pipeline/modules/qdgga/A00-3007.pdf	S m M	
16	A00-3007	3	1	15	301	592	444	628	/home/rlaz/reorg/MathSeer-extraction-pipeline/modules/qdgga/A00-3007.pdf	i α V i	
17	A00-3007	3	2	16	1264	867	1681	985	/home/rlaz/reorg/MathSeer-extraction-pipeline/modules/qdgga/A00-3007.pdf	"( v
\textbackslash\textbackslash vert \textbackslash\textbackslash vert s )
= = i 1 ∏ ∑ , φ M \textbackslash\textbackslash vert w
\textbackslash\textbackslash vert x {]}"	
18	A00-3007	3	3	17	1372	1013	1407	1037	/home/rlaz/reorg/MathSeer-extraction-pipeline/modules/qdgga/A00-3007.pdf	λ	
19	A00-3007	3	4	18	1138	1050	1265	1083	/home/rlaz/reorg/MathSeer-extraction-pipeline/modules/qdgga/A00-3007.pdf	r 3 k	
20	A00-3007	3	5	19	1266	1186	1698	1309	/home/rlaz/reorg/MathSeer-extraction-pipeline/modules/qdgga/A00-3007.pdf	∑ P u i i ) = = l ∑ - r , r M ( w M = σ	
21	A00-3007	3	6	20	1177	1917	1285	1948	/home/rlaz/reorg/MathSeer-extraction-pipeline/modules/qdgga/A00-3007.pdf	H	
22	A00-3007	3	7	21	699	2266	730	2289	/home/rlaz/reorg/MathSeer-extraction-pipeline/modules/qdgga/A00-3007.pdf	n	
23	A00-3007	3	8	22	818	2300	928	2332	/home/rlaz/reorg/MathSeer-extraction-pipeline/modules/qdgga/A00-3007.pdf	c 1 k X )	
24	A00-3007	3	9	23	833	2342	1024	2374	/home/rlaz/reorg/MathSeer-extraction-pipeline/modules/qdgga/A00-3007.pdf	. ( 1 x ) )	
25	A00-3007	3	10	24	576	2384	829	2417	/home/rlaz/reorg/MathSeer-extraction-pipeline/modules/qdgga/A00-3007.pdf	m L i	
26	A00-3007	3	11	25	708	2427	779	2458	/home/rlaz/reorg/MathSeer-extraction-pipeline/modules/qdgga/A00-3007.pdf	"ε d ) ε ( t ∞ d w ) \textbackslash\textbackslash vert
x )"	
27	A00-3007	3	13	26	1406	2508	1627	2541	/home/rlaz/reorg/MathSeer-extraction-pipeline/modules/qdgga/A00-3007.pdf	m t H ( χ )	
28	A00-3007	3	14	27	824	2595	1397	2628	/home/rlaz/reorg/MathSeer-extraction-pipeline/modules/qdgga/A00-3007.pdf	D Λ m \ldots{} i s r e i a i	
29	A00-3007	4	1	28	434	656	572	696	/home/rlaz/reorg/MathSeer-extraction-pipeline/modules/qdgga/A00-3007.pdf	α 1 ;	
30	A00-3007	4	2	29	700	1526	844	1557	/home/rlaz/reorg/MathSeer-extraction-pipeline/modules/qdgga/A00-3007.pdf	r N ε M	
31	A00-3007	4	3	30	1618	1926	1736	1954	/home/rlaz/reorg/MathSeer-extraction-pipeline/modules/qdgga/A00-3007.pdf	α ≠ 0	
32	A00-3007	4	4	31	1558	2376	1693	2410	/home/rlaz/reorg/MathSeer-extraction-pipeline/modules/qdgga/A00-3007.pdf	κ -	
33	A00-3007	4	5	20	1610	2465	1770	2500	/home/rlaz/reorg/MathSeer-extraction-pipeline/modules/qdgga/A00-3007.pdf	H	
34	A00-3007	5	1	32	842	296	1436	384	/home/rlaz/reorg/MathSeer-extraction-pipeline/modules/qdgga/A00-3007.pdf	g a C {[} C 2 Γ W α 3 D 2 2 + - M	
35	A00-3007	5	2	33	1251	377	1377	402	/home/rlaz/reorg/MathSeer-extraction-pipeline/modules/qdgga/A00-3007.pdf	Ω - 7 ; \&colon	
36	A00-3007	5	3	34	1251	377	1369	402	/home/rlaz/reorg/MathSeer-extraction-pipeline/modules/qdgga/A00-3007.pdf	Ω . 7	
37	A00-3007	5	4	35	1799	457	1938	489	/home/rlaz/reorg/MathSeer-extraction-pipeline/modules/qdgga/A00-3007.pdf	T E \&subset \ldots{}	
38	A00-3007	5	5	35	1799	458	1938	489	/home/rlaz/reorg/MathSeer-extraction-pipeline/modules/qdgga/A00-3007.pdf	T E \&subset \ldots{}	
39	A00-3007	5	6	20	1603	792	1699	825	/home/rlaz/reorg/MathSeer-extraction-pipeline/modules/qdgga/A00-3007.pdf	H	
40	A00-3007	5	7	36	826	811	1017	845	/home/rlaz/reorg/MathSeer-extraction-pipeline/modules/qdgga/A00-3007.pdf	Y M C R	
41	A00-3007	5	8	37	829	1228	1022	1259	/home/rlaz/reorg/MathSeer-extraction-pipeline/modules/qdgga/A00-3007.pdf	M - k	
42	A00-3007	5	9	38	776	1561	823	1587	/home/rlaz/reorg/MathSeer-extraction-pipeline/modules/qdgga/A00-3007.pdf	- ∞ 7 Y a 3	
43	A00-3007	5	11	39	1426	1792	1576	1824	/home/rlaz/reorg/MathSeer-extraction-pipeline/modules/qdgga/A00-3007.pdf	a V	
44	A00-3007	5	13	40	1255	1916	1319	1942	/home/rlaz/reorg/MathSeer-extraction-pipeline/modules/qdgga/A00-3007.pdf	X	
45	A00-3007	5	12	41	878	1852	1019	1884	/home/rlaz/reorg/MathSeer-extraction-pipeline/modules/qdgga/A00-3007.pdf	α - 3	
46	A00-3007	5	15	20	787	2060	903	2084	/home/rlaz/reorg/MathSeer-extraction-pipeline/modules/qdgga/A00-3007.pdf	H	
47	A00-3007	5	16	42	882	2224	1023	2257	/home/rlaz/reorg/MathSeer-extraction-pipeline/modules/qdgga/A00-3007.pdf	a .	
48	A00-3007	5	17	43	442	2554	643	2581	/home/rlaz/reorg/MathSeer-extraction-pipeline/modules/qdgga/A00-3007.pdf	M	
